id,title
traffic_sign_recognition_with_synthetic_datasets,Traffic sign recognition with synthetic datasets
geometric_image_parsing_in_man_made_environments,Geometric image parsing in man-made environments
medical_image_analysis,Medical image analysis
